<svg xmlns="http://www.w3.org/2000/svg" width="351.018" height="262.356" viewBox="0 0 351.018 262.356">
  <g id="relaxing_attendance" data-name="relaxing attendance" transform="translate(-1.675 -84.929)">
    <g id="OBJECTS" transform="translate(0 73.538)">
      <ellipse id="Ellipse_39" data-name="Ellipse 39" cx="70.342" cy="2.739" rx="70.342" ry="2.739" transform="translate(107.741 266.196)" fill="#f4f4f4" opacity="0.5"/>
      <ellipse id="Ellipse_40" data-name="Ellipse 40" cx="44.654" cy="3.39" rx="44.654" ry="3.39" transform="translate(1.675 263.278)" fill="#ededed" opacity="0.5"/>
      <path id="Path_846" data-name="Path 846" d="M439.146,454.562c0,1.14-15.2,2.065-33.958,2.065s-33.958-.924-33.958-2.065,15.2-2.065,33.958-2.065S439.146,453.421,439.146,454.562Z" transform="translate(-104.173 -182.88)" fill="#f7f7f7" opacity="0.5"/>
      <path id="Path_847" data-name="Path 847" d="M439.553,403.027H368.141a1.91,1.91,0,0,1-1.91-1.91h0a1.91,1.91,0,0,1,1.91-1.91h71.412a1.91,1.91,0,0,1,1.91,1.91h0A1.91,1.91,0,0,1,439.553,403.027Z" transform="translate(-88.77 -164.925)" fill="#e1e1e1"/>
      <path id="Path_848" data-name="Path 848" d="M381.082,437.893h0a1.847,1.847,0,0,1-2-1.488l-1.856-33.522h7.713L383.082,436.4a1.847,1.847,0,0,1-2,1.488Z" transform="translate(-91.855 -165.957)" fill="#e1e1e1"/>
      <path id="Path_849" data-name="Path 849" d="M453.894,437.893h0a1.847,1.847,0,0,1-2-1.488l-1.856-33.522h7.713L455.894,436.4a1.847,1.847,0,0,1-2,1.488Z" transform="translate(-112.288 -165.957)" fill="#e1e1e1"/>
      <path id="Path_850" data-name="Path 850" d="M417.016,437.893h0a1.847,1.847,0,0,1-2-1.488l-1.856-33.522h7.713L419.016,436.4a1.847,1.847,0,0,1-2,1.488Z" transform="translate(-101.939 -165.957)" fill="#e1e1e1"/>
      <path id="Path_962" data-name="Path 962" d="M8.506,0A8.506,8.506,0,1,1,0,8.506,8.506,8.506,0,0,1,8.506,0Z" transform="translate(312.642 232.173) rotate(-77.36)" fill="#e0e0e0"/>
      <path id="Path_851" data-name="Path 851" d="M431.441,376.9h-8.77a.885.885,0,0,1-.885-.885h0a.885.885,0,0,1,.885-.885h8.771a.885.885,0,0,1,.885.885h0A.885.885,0,0,1,431.441,376.9Z" transform="translate(-104.36 -158.169)" fill="#e0e0e0"/>
      <path id="Path_852" data-name="Path 852" d="M423.724,355.486a2.021,2.021,0,0,1,.8,1.448,1.974,1.974,0,0,1-.292,1.627,2,2,0,0,1-.8-1.447,2.041,2.041,0,0,1,.293-1.627Z" transform="translate(-104.805 -152.657)" fill="#a7a7a7"/>
      <rect id="Rectangle_445" data-name="Rectangle 445" width="0.182" height="4.915" transform="matrix(0.987, -0.162, 0.162, 0.987, 319.323, 205.868)" fill="#a7a7a7"/>
      <path id="Path_853" data-name="Path 853" d="M426.753,359.471a1.735,1.735,0,0,0-1.281.9,1.974,1.974,0,0,0-.374,1.605,1.714,1.714,0,0,0,1.282-.9,2.04,2.04,0,0,0,.373-1.605Z" transform="translate(-105.278 -153.775)" fill="#a7a7a7"/>
      <path id="Path_854" data-name="Path 854" d="M421.77,360.388a1.735,1.735,0,0,1,1.5.442,1.975,1.975,0,0,1,.868,1.4,1.714,1.714,0,0,1-1.5-.441A2.04,2.04,0,0,1,421.77,360.388Z" transform="translate(-104.355 -154.024)" fill="#a7a7a7"/>
      <path id="Path_855" data-name="Path 855" d="M422.314,363.692a1.735,1.735,0,0,1,1.5.442,1.974,1.974,0,0,1,.868,1.4h0a1.715,1.715,0,0,1-1.5-.441,2.039,2.039,0,0,1-.868-1.4Z" transform="translate(-104.508 -154.952)" fill="#a7a7a7"/>
      <path id="Path_856" data-name="Path 856" d="M427.3,362.775a1.734,1.734,0,0,0-1.281.9,1.973,1.973,0,0,0-.374,1.6h0a1.714,1.714,0,0,0,1.282-.9,2.04,2.04,0,0,0,.373-1.6Z" transform="translate(-105.43 -154.702)" fill="#a7a7a7"/>
      <rect id="Rectangle_446" data-name="Rectangle 446" width="0.182" height="4.915" transform="matrix(0.987, -0.162, 0.162, 0.987, 320.104, 210.611)" fill="#a7a7a7"/>
      <path id="Path_857" data-name="Path 857" d="M427.837,366.064a1.735,1.735,0,0,0-1.281.9,1.974,1.974,0,0,0-.374,1.605,1.714,1.714,0,0,0,1.282-.9A2.04,2.04,0,0,0,427.837,366.064Z" transform="translate(-105.582 -155.625)" fill="#a7a7a7"/>
      <path id="Path_858" data-name="Path 858" d="M422.854,366.981a1.735,1.735,0,0,1,1.5.442,1.975,1.975,0,0,1,.868,1.4,1.714,1.714,0,0,1-1.5-.441,2.04,2.04,0,0,1-.868-1.4Z" transform="translate(-104.66 -155.875)" fill="#a7a7a7"/>
      <path id="Path_859" data-name="Path 859" d="M423.4,370.286a1.735,1.735,0,0,1,1.5.442,1.974,1.974,0,0,1,.868,1.4h0a1.714,1.714,0,0,1-1.5-.441,2.039,2.039,0,0,1-.868-1.4Z" transform="translate(-104.812 -156.802)" fill="#a7a7a7"/>
      <path id="Path_860" data-name="Path 860" d="M428.38,369.368a1.734,1.734,0,0,0-1.281.9,1.974,1.974,0,0,0-.374,1.6h0a1.715,1.715,0,0,0,1.281-.9,2.04,2.04,0,0,0,.373-1.6Z" transform="translate(-105.735 -156.552)" fill="#a7a7a7"/>
      <path id="Path_963" data-name="Path 963" d="M0,0H.182L.161,1.65l-.1-.016Z" transform="matrix(0.987, -0.162, 0.162, 0.987, 320.883, 215.354)" fill="#a7a7a7"/>
      <path id="Path_861" data-name="Path 861" d="M434.106,360.361a1.64,1.64,0,0,1,.3,1.433,1.6,1.6,0,0,1-.788,1.233,1.622,1.622,0,0,1-.3-1.432A1.655,1.655,0,0,1,434.106,360.361Z" transform="translate(-107.58 -154.025)" fill="#a7a7a7"/>
      <rect id="Rectangle_448" data-name="Rectangle 448" width="4.274" height="0.182" transform="translate(325.179 213.143) rotate(-79.58)" fill="#a7a7a7"/>
      <path id="Path_862" data-name="Path 862" d="M435.62,364.719a1.856,1.856,0,0,0-1.494.326,1.6,1.6,0,0,0-.858,1.189,1.834,1.834,0,0,0,1.494-.326,1.655,1.655,0,0,0,.858-1.19Z" transform="translate(-107.582 -155.236)" fill="#a7a7a7"/>
      <path id="Path_863" data-name="Path 863" d="M430.9,363.7a1.856,1.856,0,0,1,1.281.836,1.6,1.6,0,0,1,.379,1.417,1.834,1.834,0,0,1-1.281-.836,1.655,1.655,0,0,1-.379-1.417Z" transform="translate(-106.908 -154.962)" fill="#a7a7a7"/>
      <path id="Path_864" data-name="Path 864" d="M430.373,366.565a1.856,1.856,0,0,1,1.28.836,1.6,1.6,0,0,1,.379,1.416h0a1.834,1.834,0,0,1-1.28-.836A1.655,1.655,0,0,1,430.373,366.565Z" transform="translate(-106.761 -155.766)" fill="#a7a7a7"/>
      <path id="Path_865" data-name="Path 865" d="M435.094,367.584a1.856,1.856,0,0,0-1.494.326,1.6,1.6,0,0,0-.858,1.189h0a1.834,1.834,0,0,0,1.494-.326A1.655,1.655,0,0,0,435.094,367.584Z" transform="translate(-107.434 -156.04)" fill="#a7a7a7"/>
      <path id="Path_964" data-name="Path 964" d="M.305,0,4.274,0V.182L.337.177Z" transform="translate(324.424 217.255) rotate(-79.58)" fill="#a7a7a7"/>
      <path id="Path_866" data-name="Path 866" d="M434.569,370.434a1.856,1.856,0,0,0-1.494.326,1.6,1.6,0,0,0-.858,1.189,1.834,1.834,0,0,0,1.494-.326,1.655,1.655,0,0,0,.858-1.19Z" transform="translate(-107.287 -156.84)" fill="#a7a7a7"/>
      <path id="Path_867" data-name="Path 867" d="M429.849,369.416a1.856,1.856,0,0,1,1.28.836,1.6,1.6,0,0,1,.379,1.417,1.834,1.834,0,0,1-1.281-.836A1.654,1.654,0,0,1,429.849,369.416Z" transform="translate(-106.614 -156.566)" fill="#a7a7a7"/>
      <rect id="Rectangle_450" data-name="Rectangle 450" width="4.274" height="0.182" transform="translate(323.67 221.369) rotate(-79.579)" fill="#e0e0e0"/>
      <rect id="Rectangle_451" data-name="Rectangle 451" width="24.936" height="27.167" transform="translate(280.963 205.903)" fill="#bcbcbc"/>
      <rect id="Rectangle_452" data-name="Rectangle 452" width="19.345" height="21.076" transform="translate(283.758 208.949)" fill="#e0e0e0"/>
      <rect id="Rectangle_453" data-name="Rectangle 453" width="4.013" height="177.499" transform="translate(28.712 81.957)" fill="#ededed"/>
      <path id="Path_868" data-name="Path 868" d="M66.311,440.112H25.356c0-4.381,9.172-7.931,20.481-7.931S66.311,435.731,66.311,440.112Z" transform="translate(-15.115 -174.179)" fill="#e0e0e0"/>
      <path id="Path_869" data-name="Path 869" d="M71,172.209H14.66l1.043-3.654.209-.719,1.892-6.618.209-.719L28.328,124.42H58.773L68,160.5l.187.719,1.691,6.618.187.719Z" transform="translate(-12.114 -87.816)" fill="#ededed"/>
      <path id="Path_870" data-name="Path 870" d="M19.05,177.821l-1.918,3.322h3.836Z" transform="translate(-12.808 -102.801)" fill="#fffffe"/>
      <path id="Path_871" data-name="Path 871" d="M25.093,181.143l-1.918-3.322h3.836Z" transform="translate(-14.503 -102.801)" fill="#fffffe"/>
      <path id="Path_872" data-name="Path 872" d="M30.425,177.821l-1.918,3.322h3.836Z" transform="translate(-16 -102.801)" fill="#fffffe"/>
      <path id="Path_873" data-name="Path 873" d="M36.467,181.143l-1.918-3.322h3.836Z" transform="translate(-17.695 -102.801)" fill="#fffffe"/>
      <path id="Path_874" data-name="Path 874" d="M41.8,177.821l-1.918,3.322h3.836Z" transform="translate(-19.191 -102.801)" fill="#fffffe"/>
      <path id="Path_875" data-name="Path 875" d="M47.842,181.143l-1.918-3.322H49.76Z" transform="translate(-20.887 -102.801)" fill="#fffffe"/>
      <path id="Path_876" data-name="Path 876" d="M53.174,177.821l-1.918,3.322h3.835Z" transform="translate(-22.383 -102.801)" fill="#fffffe"/>
      <path id="Path_877" data-name="Path 877" d="M59.216,181.143,57.3,177.821h3.836Z" transform="translate(-24.079 -102.801)" fill="#fffffe"/>
      <path id="Path_878" data-name="Path 878" d="M64.548,177.821l-1.918,3.322h3.836Z" transform="translate(-25.575 -102.801)" fill="#fffffe"/>
      <path id="Path_879" data-name="Path 879" d="M70.59,181.143l-1.918-3.322h3.836Z" transform="translate(-27.27 -102.801)" fill="#fffffe"/>
      <path id="Path_880" data-name="Path 880" d="M75.922,177.821,74,181.143H77.84Z" transform="translate(-28.767 -102.801)" fill="#fffffe"/>
      <path id="Path_881" data-name="Path 881" d="M81.965,181.143l-1.918-3.322h3.836Z" transform="translate(-30.462 -102.801)" fill="#fffffe"/>
      <path id="Path_882" data-name="Path 882" d="M87.3,177.821l-1.918,3.322h3.836Z" transform="translate(-31.959 -102.801)" fill="#fffffe"/>
      <path id="Path_883" data-name="Path 883" d="M69.416,175.289H19.03l.209-.719h49.99Z" transform="translate(-13.34 -101.889)" fill="#fffffe"/>
      <path id="Path_884" data-name="Path 884" d="M70.474,185.489H16.11l.209-.719H70.287Z" transform="translate(-12.521 -104.751)" fill="#fffffe"/>
      <path id="Path_885" data-name="Path 885" d="M101.587,323.536c1.468-5.681,4.627-10.76,7.867-15.652a67.775,67.775,0,0,1,9.69-12.239c3.8-3.573,8.48-6.388,13.635-7.182L129,300.633c-1.26,4.059-2.558,8.2-5.045,11.644a26.377,26.377,0,0,1-10.376,8.116,78.759,78.759,0,0,1-12.6,4.253" transform="translate(-36.337 -133.849)" fill="#29339b"/>
      <path id="Path_886" data-name="Path 886" d="M101.746,323.5c2.163-7.691,6.872-14.685,11.617-21.035a44.484,44.484,0,0,1,8.415-8.881c1.547-1.185,9.436-6.419,10.219-3.949.347,1.093-1.566,5.045-1.889,6.085-.6,1.947-1.2,3.9-1.814,5.841-1.157,3.646-2.414,7.339-4.672,10.471-5.294,7.344-14.529,9.953-22.816,12.244a.27.27,0,0,0,.143.52c8.1-2.24,16.889-4.757,22.423-11.557,5.46-6.709,7.066-16.766,9.564-24.814a.273.273,0,0,0-.332-.332c-7.791,1.424-13.829,6.536-18.6,12.632-5.257,6.721-10.453,14.343-12.783,22.63a.27.27,0,0,0,.52.143Z" transform="translate(-36.235 -133.744)" fill="#29339b"/>
      <path id="Path_887" data-name="Path 887" d="M89.435,349.232l17.042-36.439c.292-.625-.637-1.174-.932-.545L88.5,348.687c-.292.625.637,1.174.932.545Z" transform="translate(-32.82 -140.446)" fill="#3847dc"/>
      <path id="Path_888" data-name="Path 888" d="M90.751,312.557c.331-12.726,5.138-25.59,8.336-37.826a.27.27,0,0,0-.52-.143c-3.214,12.3-8.022,25.169-8.355,37.97a.27.27,0,0,0,.54,0Z" transform="translate(-33.315 -129.902)" fill="#39b54a"/>
      <path id="Path_889" data-name="Path 889" d="M70.4,317.19c-5.424-4.819-10.894-9.69-15.141-15.572s-7.227-12.945-7-20.2c3.463,5.489,10.771,7.537,14.372,12.936a25.2,25.2,0,0,1,2.6,5.85l5.878,16.99" transform="translate(-21.54 -131.873)" fill="#29339b"/>
      <path id="Path_890" data-name="Path 890" d="M70.489,316.9C64.8,311.84,59.017,306.714,54.7,300.388a37.736,37.736,0,0,1-5.024-10.248,29.449,29.449,0,0,1-1.148-5.814c-.159-1.7-.664-2.311.6-1.266,1.782,1.479,3.313,3.078,5.23,4.43,2.624,1.851,5.4,3.585,7.382,6.165,2.552,3.328,3.593,7.823,4.951,11.749l4.069,11.763c.113.326.634.186.52-.143L66.75,303.954c-1.189-3.436-2.119-7.232-4.266-10.228-3.743-5.221-10.431-7.208-14.089-12.543a.272.272,0,0,0-.5.136c-.118,15.436,11.516,26.447,22.215,35.959.259.23.642-.15.381-.381Z" transform="translate(-21.439 -131.77)" fill="#29339b"/>
      <path id="Path_891" data-name="Path 891" d="M64.354,294.047A183.144,183.144,0,0,1,81.62,351.431c.087.679,1.168.688,1.079,0A184.762,184.762,0,0,0,65.285,293.5c-.306-.623-1.237-.077-.932.545Z" transform="translate(-26.042 -135.186)" fill="#3847dc"/>
      <path id="Path_892" data-name="Path 892" d="M85.371,253.186a85.538,85.538,0,0,1,.372-47.887,53.6,53.6,0,0,1,7.37,15.369,42.1,42.1,0,0,1,1.439,18.843,29.52,29.52,0,0,1-8.593,16.639" transform="translate(-31.048 -110.512)" fill="#29339b"/>
      <path id="Path_893" data-name="Path 893" d="M85.551,253.011a86.94,86.94,0,0,1-3.2-25.21,85.213,85.213,0,0,1,1.406-13.615q.54-2.9,1.284-5.76c.842-3.244,1.429-1.643,2.685.517,8.32,14.3,10.761,34.4-2.037,46.913-.249.243.133.625.381.381,14.19-13.878,9.941-36.255-.173-51.177a.273.273,0,0,0-.493.065,87.393,87.393,0,0,0-.372,48.031.27.27,0,0,0,.52-.143Z" transform="translate(-30.968 -110.409)" fill="#29339b"/>
      <path id="Path_894" data-name="Path 894" d="M103.97,315.214c-1.177-7.828,1.335-15.854,5.416-22.637s9.654-12.522,15.175-18.2a50.6,50.6,0,0,1-6.424,31.446,22.816,22.816,0,0,1-5.673,6.893,11.007,11.007,0,0,1-8.412,2.338" transform="translate(-37.094 -129.898)" fill="#3847dc"/>
      <path id="Path_895" data-name="Path 895" d="M104.153,315.111c-1.028-8.179,1.429-16.1,5.708-23.032a72,72,0,0,1,7.5-9.867c1.246-1.406,2.527-2.781,3.822-4.141a17.366,17.366,0,0,1,1.736-1.806c.969-.75.846-1.271,1.47-.181.587,1.026.2,3.66.183,4.832a50.292,50.292,0,0,1-3.174,17.089c-2.786,7.415-8.017,17.758-17.435,16.68-.344-.039-.342.5,0,.54,8.631.988,13.755-7.367,16.786-14.213a51.652,51.652,0,0,0,3.993-26.734.273.273,0,0,0-.46-.191c-10.836,11.139-22.781,24.234-20.671,41.023.043.34.583.344.54,0Z" transform="translate(-37.007 -129.795)" fill="#3847dc"/>
      <path id="Path_896" data-name="Path 896" d="M92.373,290.454c-.672-9.571,1.258-19.182,4.41-28.244s7.51-17.65,11.854-26.2c2.884,9.789,3.8,20.318,1.372,30.229s-8.442,19.136-17.224,24.333" transform="translate(-33.884 -119.128)" fill="#3847dc"/>
      <path id="Path_897" data-name="Path 897" d="M92.551,290.35c-.572-9.861,1.342-19.55,4.63-28.819a150.908,150.908,0,0,1,6.1-14.442c1.082-2.27,2.2-4.523,3.329-6.769.131-.261,1.272-3.07,1.547-3.06.905.034.967,1.794,1.153,2.578,4.351,18.407.366,39.863-16.754,50.391-.295.182-.025.648.272.466,18.788-11.554,21.57-35.232,15.976-54.866a.273.273,0,0,0-.493-.065c-8.657,17.056-17.44,34.935-16.3,54.585.02.345.56.347.54,0Z" transform="translate(-33.792 -119.025)" fill="#3847dc"/>
      <path id="Path_898" data-name="Path 898" d="M84.328,263.532a272.492,272.492,0,0,1,2.28,75.917c-.076.689,1,.684,1.079,0a273.5,273.5,0,0,0-2.319-76.2c-.117-.683-1.157-.393-1.041.287Z" transform="translate(-31.661 -126.663)" fill="#3847dc"/>
      <path id="Path_899" data-name="Path 899" d="M83.174,256.9a27.025,27.025,0,0,1-8.71-14.611c-.97-5.3-.687-10.737-.352-16.113s.718-10.8-.059-16.128a87.124,87.124,0,0,1,10.1,17.557,41.685,41.685,0,0,1,3.823,14.806c.181,5.123-1.2,10.447-4.59,14.3" transform="translate(-28.709 -111.844)" fill="#3847dc"/>
      <path id="Path_900" data-name="Path 900" d="M83.255,256.606c-6.692-5.9-9.259-13.707-9.3-22.447-.017-4.049.351-8.084.555-12.124.1-2.019.176-4.039.144-6.061-.009-.586-.559-4.652-.2-4.868,1.3-.775,10.451,19.187,10.963,20.656,2.86,8.195,3.483,17.568-2.335,24.651-.219.266.161.65.381.381,11.533-14.042-.419-34.851-9.294-46.985-.137-.187-.541-.161-.5.136,1.2,9.42-.843,18.817-.1,28.244a27.488,27.488,0,0,0,9.3,18.8c.26.229.643-.151.381-.381Z" transform="translate(-28.599 -111.744)" fill="#3847dc"/>
      <path id="Path_901" data-name="Path 901" d="M71.507,310.483c2.088-7.329.855-17.324-2.638-24.1s-8.945-12.373-14.983-17.021c.329,7.815.932,15.732,3.539,23.106s7.1,14.493,14.082,18.011" transform="translate(-23.121 -128.49)" fill="#3847dc"/>
      <path id="Path_902" data-name="Path 902" d="M71.662,310.455c4.362-16.7-4.963-31.424-17.69-41.38-.168-.132-.472-.067-.46.191.66,14.925,3.078,33.495,17.754,41.35.306.164.579-.3.272-.466-6.67-3.57-10.952-9.9-13.591-16.846a54.173,54.173,0,0,1-2.808-11.1c-.39-2.558-.632-5.139-.81-7.719a18.7,18.7,0,0,1-.157-2.61c.094-1.223-.374-1.576.834-1.3s3.2,2.733,4.085,3.574c1.307,1.247,2.558,2.554,3.737,3.923a39.417,39.417,0,0,1,6.534,10.168,34.954,34.954,0,0,1,1.778,22.07.27.27,0,0,0,.52.143Z" transform="translate(-23.016 -128.39)" fill="#3847dc"/>
      <path id="Path_903" data-name="Path 903" d="M103.032,395.577c0,12.175-4.725,22.778-11.709,28.293H69.294c-6.984-5.515-11.709-16.118-11.709-28.293,0-11.375,4.127-21.379,10.368-27.148H92.664C98.906,374.2,103.032,384.2,103.032,395.577Z" transform="translate(-24.159 -156.289)" fill="#ededed"/>
      <g id="Group_780" data-name="Group 780" transform="translate(44.142 213.836)" opacity="0.25">
        <path id="Path_904" data-name="Path 904" d="M98.494,370.787a116.189,116.189,0,0,1-26.013,52.9c.327.29.655.579.993.846H95.5c6.984-5.515,11.709-16.118,11.709-28.293C107.212,385.9,103.8,376.711,98.494,370.787Z" transform="translate(-72.481 -370.787)" fill="#bcbcbc"/>
      </g>
      <rect id="Rectangle_454" data-name="Rectangle 454" width="27.344" height="2.987" rx="1.494" transform="translate(42.477 209.152)" fill="#ededed"/>
      <path id="Path_905" data-name="Path 905" d="M108.466,313.745a61.537,61.537,0,0,1,2.53-6.891,70.535,70.535,0,0,1,7.192-12.8q1.075-1.491,2.2-2.943c.777-.947,1.549-1.9,2.374-2.8q-.52.757-1.055,1.5l-1.035,1.51q-1.036,1.507-2.023,3.044c-1.308,2.054-2.577,4.13-3.762,6.254s-2.313,4.28-3.388,6.464S109.439,311.5,108.466,313.745Z" transform="translate(-38.437 -133.807)" fill="#006837"/>
      <path id="Path_906" data-name="Path 906" d="M83.293,256.163c-.4-2.209-.712-4.424-1.017-6.64s-.57-4.436-.826-6.657c-.239-2.223-.478-4.446-.66-6.676l-.272-3.345c-.065-1.118-.154-2.234-.2-3.356.2,1.1.363,2.209.547,3.313l.471,3.323c.312,2.216.57,4.439.825,6.661.239,2.225.477,4.449.66,6.68S83.193,253.926,83.293,256.163Z" transform="translate(-30.54 -117.3)" fill="#006837"/>
      <path id="Path_907" data-name="Path 907" d="M60.983,284.018a66.111,66.111,0,0,1,3.33,5.916c1.026,2.02,1.938,4.1,2.783,6.2.83,2.108,1.593,4.244,2.235,6.416.317,1.087.623,2.177.909,3.272.258,1.1.525,2.2.732,3.315L69.9,305.92q-.531-1.607-1.1-3.2c-.763-2.12-1.538-4.234-2.377-6.323-.824-2.1-1.712-4.164-2.613-6.229S61.942,286.068,60.983,284.018Z" transform="translate(-25.113 -132.602)" fill="#006837"/>
      <path id="Path_908" data-name="Path 908" d="M96.927,285.874c1.128-2.74,2.251-5.476,3.311-8.235s2.1-5.523,3.037-8.325c.99-2.783,1.875-5.6,2.742-8.427q.653-2.119,1.257-4.253l1.216-4.271c-.253,1.46-.567,2.908-.874,4.359q-.505,2.165-1.066,4.317c-.759,2.867-1.654,5.7-2.595,8.509-1,2.794-2.034,5.574-3.206,8.3S98.323,283.26,96.927,285.874Z" transform="translate(-35.199 -123.719)" fill="#006837"/>
      <rect id="Rectangle_455" data-name="Rectangle 455" width="92.616" height="47.385" transform="translate(241.015 51.384)" fill="none" stroke="#cfcfcf" stroke-miterlimit="10" stroke-width="3"/>
      <rect id="Rectangle_456" data-name="Rectangle 456" width="72.408" height="32.908" transform="translate(251.119 58.623)" fill="#dadada"/>
      <path id="Path_909" data-name="Path 909" d="M129.2,89.372l-3.187,5.519h6.373Z" transform="translate(-35.36 -77.981)" fill="#fff"/>
      <rect id="Rectangle_457" data-name="Rectangle 457" width="52.607" height="44.053" transform="translate(108.581 13.328)" fill="none" stroke="#cfcfcf" stroke-miterlimit="10" stroke-width="3"/>
      <rect id="Rectangle_458" data-name="Rectangle 458" width="29.972" height="25.099" transform="translate(119.898 22.805)" fill="#dadada"/>
      <path id="Path_910" data-name="Path 910" d="M199.252,258.742h54.481a23.893,23.893,0,0,1,23.893,23.893v58.4H175.359v-58.4a23.893,23.893,0,0,1,23.893-23.893Z" transform="translate(-49.209 -125.509)" fill="#222256"/>
      <rect id="Rectangle_459" data-name="Rectangle 459" width="78.061" height="12.856" transform="translate(138.253 202.674)" fill="#00000c"/>
      <rect id="Rectangle_460" data-name="Rectangle 460" width="84.113" height="32.677" transform="translate(132.202 215.531)" fill="#3847dc"/>
      <path id="Path_911" data-name="Path 911" d="M272.415,423.406H181.041a4.841,4.841,0,0,1-4.841-4.841H277.256a4.841,4.841,0,0,1-4.84,4.841Z" transform="translate(-49.445 -170.358)" fill="#00000c"/>
      <path id="Path_912" data-name="Path 912" d="M178.385,440.423h-3.026l5.446-15.129h4.236Z" transform="translate(-49.209 -172.246)" fill="#00000c"/>
      <path id="Path_913" data-name="Path 913" d="M310.714,440.423h3.026l-5.446-15.129h-4.236Z" transform="translate(-85.324 -172.246)" fill="#00000c"/>
      <path id="Path_914" data-name="Path 914" d="M160.47,258.187a16.425,16.425,0,0,1-6.545-8.05,11.588,11.588,0,0,1,1.062-10.13,9,9,0,0,1,9.143-3.88c.142-4.635,4.4-8.006,8.528-10.128,4.538-2.336,9.281-3.694,13.92-1.566a14.528,14.528,0,0,1,6.666,5.609,38.905,38.905,0,0,1,2.974,7.967,9.4,9.4,0,0,1,13.769,10.874c3.67-1.553,8.115-2.246,11.489-.125,3.547,2.23,4.771,6.816,5.014,11,.209,3.6-.15,7.41-2.194,10.376-2.421,3.512-6.7,5.169-10.749,6.5-7.008,2.3-14.226,4.217-21.6,4.435s-14.969-1.379-21.016-5.6-10.316-11.3-10.1-18.675" transform="translate(-42.996 -115.584)" fill="#1a1a1a"/>
      <path id="Path_915" data-name="Path 915" d="M151.592,278.627a10.315,10.315,0,0,0-7.833,16.3,8.532,8.532,0,0,0-6.989,13.25,12.455,12.455,0,0,0,6.16,4.445c6.685,2.511,14.28,1.661,20.915-.978a24.021,24.021,0,0,0,10.044-6.864c2.57-3.2,3.907-7.56,2.8-11.507a14.029,14.029,0,0,0-4.873-6.89A39.408,39.408,0,0,0,164.466,282c-4.4-2.2-9.016-4.364-13.934-4.454" transform="translate(-37.98 -130.785)"/>
      <path id="Path_916" data-name="Path 916" d="M174.994,336.782H153.815a12.1,12.1,0,0,1-12.1-12.1h0a12.1,12.1,0,0,1,12.1-12.1H170.6a4.4,4.4,0,0,1,4.4,4.4Z" transform="translate(-39.767 -140.616)" fill="#3847dc"/>
      <path id="Path_917" data-name="Path 917" d="M160.218,312.578h14.1a8.9,8.9,0,0,1,8.9,8.9v67.347h-14.1a8.9,8.9,0,0,1-8.9-8.9Z" transform="translate(-44.96 -140.616)" fill="#3847dc"/>
      <path id="Path_918" data-name="Path 918" d="M195.645,228.715a7.333,7.333,0,0,1,5.766,1.058,6.438,6.438,0,0,1,2.037,2.237,7.143,7.143,0,0,1,.6,1.373,12.954,12.954,0,0,1,.308,1.449c-.238-.438-.392-.9-.633-1.313a10.269,10.269,0,0,0-.752-1.207,7.479,7.479,0,0,0-1.97-1.947,8.563,8.563,0,0,0-2.521-1.182A12.785,12.785,0,0,0,195.645,228.715Z" transform="translate(-54.901 -117.029)" fill="#fff"/>
      <path id="Path_919" data-name="Path 919" d="M240.155,261.715a7.664,7.664,0,0,1,6.63,3.362,7.014,7.014,0,0,1,.667,1.413,6.574,6.574,0,0,1,.347,1.5,11.14,11.14,0,0,1,.013,1.521,12.252,12.252,0,0,0-.88-2.811,7.15,7.15,0,0,0-1.653-2.309,9.485,9.485,0,0,0-2.353-1.64A14.656,14.656,0,0,0,240.155,261.715Z" transform="translate(-67.391 -126.342)" fill="#fff"/>
      <path id="Path_920" data-name="Path 920" d="M223.306,247.036a4.27,4.27,0,0,1,1.278.422,4.608,4.608,0,0,1,1.119.78,3.564,3.564,0,0,1,.792,1.122,2.981,2.981,0,0,1,.255,1.328,5.131,5.131,0,0,0-.5-1.2,4.912,4.912,0,0,0-.8-.99A9.02,9.02,0,0,0,223.306,247.036Z" transform="translate(-62.663 -122.224)" fill="#fff"/>
      <path id="Path_921" data-name="Path 921" d="M214.591,276.082a12.065,12.065,0,0,0-1.3-9.858,8.548,8.548,0,0,0-8.889-3.68c1.016-2.384-.456-5.225-2.6-6.687s-4.785-1.914-7.313-2.488a63.192,63.192,0,0,1-20.921-8.969c-3.213-2.136-3.747-1.653-5.267-5.1-.905,1.332-2.683,3.494-2.734,5.146-2.869-2.622-8.624-2.891-10.586.032a11.587,11.587,0,0,0-1.062,10.13,16.424,16.424,0,0,0,6.545,8.05l.363-1.4c-.217,7.372,4.052,14.453,10.1,18.675s13.644,5.819,21.016,5.6c6.8-.2,13.457-1.852,19.947-3.908A18.128,18.128,0,0,0,214.591,276.082Z" transform="translate(-42.996 -120.053)"/>
      <path id="Path_922" data-name="Path 922" d="M175.017,323.837v59.007h-11.51V333.077h-3.158a6.028,6.028,0,0,1-6.028-6.028h0a6.028,6.028,0,0,1,6.028-6.028H172.2a2.817,2.817,0,0,1,2.817,2.817Z" transform="translate(-43.305 -142.985)" fill="none" stroke="#3847dc" stroke-miterlimit="10" stroke-width="1"/>
      <path id="Path_923" data-name="Path 923" d="M199.829,254.076c-.485-3.768,1.9-7.18,5.334-7.622s6.605,2.255,7.09,6.022-1.9,7.18-5.334,7.622S200.313,257.844,199.829,254.076Z" transform="translate(-56.058 -122.048)" fill="#3847dc"/>
      <path id="Path_924" data-name="Path 924" d="M199.829,254.089c.485,3.768,3.66,6.464,7.09,6.022a5.881,5.881,0,0,0,3.6-1.9c-4.256-2.737-5.01-9.515-5.142-11.757-.07.006-.14.006-.21.015C201.731,246.909,199.343,250.321,199.829,254.089Z" transform="translate(-56.058 -122.06)" fill="#3847dc"/>
      <path id="Path_925" data-name="Path 925" d="M187.135,277.781l2.421,10.892,8.472,2.421s3.026-3.026,3.026-3.631-4.236-12.1-4.236-12.1Z" transform="translate(-52.513 -130.172)" fill="#ffc3bd"/>
      <path id="Path_926" data-name="Path 926" d="M196.817,275.36l-9.682,2.421.827,3.719a21.3,21.3,0,0,0,5.92,1.574,5.673,5.673,0,0,0,3.531-.7,11.044,11.044,0,0,0,1.55-1.116C197.895,278.284,196.817,275.36,196.817,275.36Z" transform="translate(-52.513 -130.172)" fill="#f5b5af"/>
      <path id="Path_927" data-name="Path 927" d="M168.625,244.407s-1.21,23.6,19.969,24.81c6.656-2.42,10.892-11.5,9.682-18.759S189.2,231.094,177.7,234.726c-6.051,2.42-9.077,9.682-9.077,9.682" transform="translate(-47.315 -118.583)" fill="#ffc3bd"/>
      <path id="Path_928" data-name="Path 928" d="M262,273.313,277.391,254.5a4.192,4.192,0,0,0,.948-2.655v-5.111a.908.908,0,0,1,.621-.861h0a.908.908,0,0,1,1.195.861v3.582l5.446-9.682,7.262-.605-9.682,16.943L268.656,282.39Z" transform="translate(-73.521 -120.258)" fill="#ffc3bd"/>
      <path id="Path_929" data-name="Path 929" d="M355.031,262.7l25.415,8.472,7.823-6.587a8.238,8.238,0,0,1,10.264-.383c1.765,1.348,2.689,3.239.672,5.761-4.841,6.051-18.759,12.708-18.759,12.708l-28.441-6.051Z" transform="translate(-98.778 -126.589)" fill="#ffc3bd"/>
      <path id="Path_930" data-name="Path 930" d="M352.005,276.66l14.124,3.005a36.5,36.5,0,0,0-.457-13.376l-10.642-3.547Z" transform="translate(-98.778 -126.631)" fill="#f5b5af" opacity="0.5"/>
      <path id="Path_931" data-name="Path 931" d="M247.7,303.7s31.862-35.4,46.114-47.488a11.756,11.756,0,0,1,8.558-2.739c10.517.852,32.466,4.842,32.466,4.842s4.236,15.733-3.631,24.81c-4.841-.605-26.626-4.841-26.626-4.841l-44.174,48.41Z" transform="translate(-69.509 -124.019)" fill="#739be0"/>
      <path id="Path_932" data-name="Path 932" d="M361.687,305.642l20.574,22.995,17.156,2.941a5.081,5.081,0,0,1,3.918,6.892c-.817,1.922-2.784,4.509-7.156,3.48-10.287-2.421-19.969-5.446-19.969-5.446l-24.2-19.364Z" transform="translate(-98.778 -138.67)" fill="#ffc3bd"/>
      <path id="Path_933" data-name="Path 933" d="M374.36,319.806l-12.673-14.164L352,317.139l16.92,13.536C371.711,327.793,374.079,324.113,374.36,319.806Z" transform="translate(-98.778 -138.67)" fill="#f5b5af" opacity="0.5"/>
      <path id="Path_934" data-name="Path 934" d="M294.254,265.79l-44.482,43.183,11.217,20.3,44.174-48.409s21.784,4.236,26.625,4.841a16.428,16.428,0,0,0,1.361-1.813c-7.913-6.469-17.357-13.893-24.4-19.077a11.24,11.24,0,0,0-14.5.978Z" transform="translate(-70.09 -126.597)" fill="#739be0" opacity="0.2"/>
      <path id="Path_935" data-name="Path 935" d="M223.306,327.387s10.892,15.733,26.625,13.918c14.688-1.695,30.958-22.9,42.409-40.976a3.308,3.308,0,0,1,5.26-.43c9.008,10.1,24.945,25.068,24.945,25.068s15.128-7.261,15.128-18.759c-4.173-5.007-21.583-22.964-31.989-33.629a12.384,12.384,0,0,0-16.723-.921l-48.713,40Z" transform="translate(-62.663 -128.344)" fill="#97b8ff"/>
      <g id="Group_781" data-name="Group 781" transform="translate(160.643 165.17)" opacity="0.5">
        <path id="Path_936" data-name="Path 936" d="M249.931,350.929c14.688-1.695,30.958-22.9,42.409-40.976a3.308,3.308,0,0,1,5.26-.43c9.008,10.1,24.945,25.068,24.945,25.068a38.84,38.84,0,0,0,7.174-4.741A283.137,283.137,0,0,0,304,307.168c-2.922-2.276-6.391-4.621-10.023-3.9-3.16.63-5.378,3.39-7.314,5.966l-12.553,16.7c-4.567,6.078-9.4,12.375-16.239,15.687a23.927,23.927,0,0,1-30.461-8.429l-4.105,3.812S234.2,352.744,249.931,350.929Z" transform="translate(-223.306 -303.137)" fill="#97b8ff"/>
      </g>
      <path id="Path_937" data-name="Path 937" d="M304.9,336.782h21.179a12.1,12.1,0,0,0,12.1-12.1h0a12.1,12.1,0,0,0-12.1-12.1H309.3a4.4,4.4,0,0,0-4.4,4.4Z" transform="translate(-85.56 -140.616)" fill="#3847dc"/>
      <path id="Path_938" data-name="Path 938" d="M8.9,0h14.1V67.347a8.9,8.9,0,0,1-8.9,8.9H0V8.9A8.9,8.9,0,0,1,8.9,0Z" transform="translate(239.309 248.207) rotate(180)" fill="#3847dc"/>
      <path id="Path_939" data-name="Path 939" d="M309.056,323.837v59.007h11.51V333.077h3.158a6.028,6.028,0,0,0,6.028-6.028h0a6.028,6.028,0,0,0-6.028-6.028H311.873a2.817,2.817,0,0,0-2.817,2.817Z" transform="translate(-86.726 -142.985)" fill="none" stroke="#3847dc" stroke-miterlimit="10" stroke-width="1"/>
      <path id="Path_940" data-name="Path 940" d="M165.814,260.043l-10.287,3.026s3.026,10.287,18.154,16.944l1.815-.605s8.466,4.737,10.587-3.38a91.593,91.593,0,0,1,11.106-2.868,15.05,15.05,0,0,1,10.225,1.557l12.1,6.637a2.741,2.741,0,0,0,3.415-.638l8.236-9.78,8.4,6.324L227.92,295.8a2.741,2.741,0,0,1-3.583.975l-11.323-5.87,6.656,10.287s-.605,18.759-19.969,21.179c-6.656-6.656-15.128-15.128-19.969-18.759s-20.574-13.918-24.81-18.154-15.128-19.364-15.733-27.231c0-4.236,24.2-7.262,24.2-7.262Z" transform="translate(-39.059 -123.327)" fill="#fffffe"/>
      <path id="Path_941" data-name="Path 941" d="M161.946,285.565a50.566,50.566,0,0,1-20.274-27.785c-1.523.73-2.482,1.52-2.482,2.36.605,7.867,11.5,22.995,15.733,27.231s19.969,14.523,24.81,18.154c.863.647,1.846,1.454,2.909,2.371C180.055,302.415,174.372,294.084,161.946,285.565Z" transform="translate(-39.059 -125.239)" fill="#f2f2f2"/>
      <path id="Path_942" data-name="Path 942" d="M225.758,295.5a7.623,7.623,0,0,1,1.546-.263,8.216,8.216,0,0,1,1.582,0,8.028,8.028,0,0,1,3.069.881,6.753,6.753,0,0,1,2.434,2.121,8.235,8.235,0,0,1,.818,1.4,15.618,15.618,0,0,1,.551,1.509l-.051-.1c.589.8,1.135,1.632,1.7,2.446s1.1,1.655,1.63,2.5c-.671-.738-1.328-1.486-1.96-2.253s-1.277-1.525-1.885-2.31l-.019-.025-.032-.078c-.194-.464-.346-.946-.566-1.392a7.521,7.521,0,0,0-.77-1.27,7.278,7.278,0,0,0-.971-1.112,8.224,8.224,0,0,0-1.2-.865,8.661,8.661,0,0,0-2.81-1.029A12.331,12.331,0,0,0,225.758,295.5Z" transform="translate(-63.351 -135.741)" fill="#97b8ff"/>
      <path id="Path_943" data-name="Path 943" d="M192.673,259.059c.531.842.989,2.543,2.337,2.271.463-.094.678-.447,1.027-.718,1.238-.961,1.885.521,1.007,1.33a2.836,2.836,0,0,1-1.67.584c-.342.037-.345.577,0,.54a3.121,3.121,0,0,0,2.291-1.009,1.531,1.531,0,0,0,.041-1.94,1.217,1.217,0,0,0-1.668-.227c-.523.349-.82,1.164-1.677.8-.609-.261-.9-1.388-1.223-1.9-.185-.293-.652-.023-.466.272Z" transform="translate(-54.055 -125.486)"/>
      <path id="Path_944" data-name="Path 944" d="M188.681,269.626a5.851,5.851,0,0,0,8.8-1.189c.2-.288-.271-.558-.466-.272a5.3,5.3,0,0,1-7.957,1.08c-.264-.222-.648.158-.381.381Z" transform="translate(-52.922 -128.119)"/>
      <path id="Path_945" data-name="Path 945" d="M179.438,255.856a3.624,3.624,0,0,1,4.091-2.3c.34.06.485-.46.143-.52a4.189,4.189,0,0,0-4.755,2.674C178.792,256.036,179.314,256.177,179.438,255.856Z" transform="translate(-50.202 -123.886)"/>
      <path id="Path_947" data-name="Path 947" d="M182.306,262.714a3.822,3.822,0,0,1,4.936-2.312c.33.11.472-.411.143-.52a4.369,4.369,0,0,0-5.6,2.689C181.665,262.9,182.187,263.037,182.306,262.714Z" transform="translate(-51.007 -125.757)"/>
      <path id="Path_951" data-name="Path 951" d="M201.91,254.067a4.357,4.357,0,0,0-5.693,2.354c-.137.315.328.59.466.272a3.837,3.837,0,0,1,5.084-2.106C202.09,254.714,202.23,254.192,201.91,254.067Z" transform="translate(-55.055 -124.104)"/>
      <path id="Path_954" data-name="Path 954" d="M285.9,253.467l7.155-22.448a1.442,1.442,0,0,1,1.336-1l12.84-.335a1.442,1.442,0,0,1,1.416,1.863l-7.136,23.312a1.442,1.442,0,0,1-1.438,1.019l-12.859-.528a1.442,1.442,0,0,1-1.315-1.878Z" transform="translate(-80.21 -117.354)"/>
      <path id="Path_955" data-name="Path 955" d="M284.22,253.467l7.155-22.448a1.442,1.442,0,0,1,1.336-1l12.841-.335a1.442,1.442,0,0,1,1.416,1.863l-7.136,23.312a1.442,1.442,0,0,1-1.438,1.019l-12.859-.528a1.442,1.442,0,0,1-1.315-1.878Z" transform="translate(-79.738 -117.354)" fill="#2e3192"/>
      <path id="Path_956" data-name="Path 956" d="M305.416,234.181,300.632,249.8l-.683,2.244-.324,1.057a1.162,1.162,0,0,1-1.165.827l-2.683-.108-7.755-.317a1.175,1.175,0,0,1-1.072-1.525l3.7-11.625,1.4-4.4.705-2.2a.914.914,0,0,1,.129-.266,1.165,1.165,0,0,1,.95-.547l.374-.007,10.05-.266a1.172,1.172,0,0,1,1.151,1.511Z" transform="translate(-80.507 -118.193)" fill="#97b8ff"/>
      <g id="Group_782" data-name="Group 782" transform="translate(212.384 114.743)" opacity="0.35">
        <path id="Path_957" data-name="Path 957" d="M302.971,249.9l-.683,2.244-7.057-18.553a1.165,1.165,0,0,1,.95-.547l.374-.007Z" transform="translate(-295.23 -233.04)" fill="#fff"/>
      </g>
      <g id="Group_783" data-name="Group 783" transform="translate(210.146 117.765)" opacity="0.35">
        <path id="Path_958" data-name="Path 958" d="M300.343,255.153a1.171,1.171,0,0,1-.417.058l-2.683-.108-5.122-13.467,1.4-4.4Z" transform="translate(-292.12 -237.24)" fill="#fff"/>
      </g>
      <path id="Path_959" data-name="Path 959" d="M169.941,257.729a30.061,30.061,0,0,0,1.874-18.192c.9,2.888,4.046,4.514,7.045,4.9s6.043-.153,9.063,0,6.284,1.218,7.812,3.828c.279.477.588,1.063,1.139,1.11.684.059,1.085-.747,1.234-1.417a14.5,14.5,0,0,0-4.861-13.84,16.936,16.936,0,0,0-14.489-3.352,20.412,20.412,0,0,0-12.269,8.706,18.343,18.343,0,0,0-3.16,9,13.327,13.327,0,0,0,2.72,9.033,3.543,3.543,0,0,0,1.885,1.387,1.525,1.525,0,0,0,1.85-1.056" transform="translate(-45.824 -117.536)" fill="#1a1a1a"/>
      <ellipse id="Ellipse_42" data-name="Ellipse 42" cx="6.876" cy="7.398" rx="6.876" ry="7.398" transform="matrix(0.98, -0.2, 0.2, 0.98, 114.36, 134.306)" fill="#3847dc"/>
      <path id="Path_960" data-name="Path 960" d="M165.986,257.45c-4.087-12.461,1.032-17.156,1.26-17.461l.151-.016.036,0,.15-.009c-.175.241-2.229,5.886,1.13,16.126Z" transform="translate(-46.136 -120.239)" fill="#3847dc"/>
      <path id="Path_961" data-name="Path 961" d="M173.6,271.239c-10.578,2.807-12.316-2.859-12.3-6.943a7.757,7.757,0,0,0-.341,4.328,7.152,7.152,0,0,0,8.216,5.875A6.634,6.634,0,0,0,173.6,271.239Z" transform="translate(-45.123 -127.067)" fill="#3847dc"/>
    </g>
  </g>
</svg>
